<?xml version="1.0" encoding="UTF-8" standalone="no"?>
<!-- Created with Inkscape (http://www.inkscape.org/) -->

<svg
   width="10.452504mm"
   height="11.910065mm"
   viewBox="0 0 10.452504 11.910065"
   version="1.1"
   id="svg5"
   xml:space="preserve"
   sodipodi:docname="nex-park-symbol.svg"
   inkscape:version="1.2.2 (732a01da63, 2022-12-09)"
   xmlns:inkscape="http://www.inkscape.org/namespaces/inkscape"
   xmlns:sodipodi="http://sodipodi.sourceforge.net/DTD/sodipodi-0.dtd"
   xmlns="http://www.w3.org/2000/svg"
   xmlns:svg="http://www.w3.org/2000/svg"><sodipodi:namedview
     id="namedview7"
     pagecolor="#505050"
     bordercolor="#eeeeee"
     borderopacity="1"
     inkscape:showpageshadow="0"
     inkscape:pageopacity="0"
     inkscape:pagecheckerboard="0"
     inkscape:deskcolor="#505050"
     inkscape:document-units="mm"
     showgrid="false"
     inkscape:zoom="4.1020923"
     inkscape:cx="-22.061912"
     inkscape:cy="58.872395"
     inkscape:window-width="1920"
     inkscape:window-height="1001"
     inkscape:window-x="-9"
     inkscape:window-y="-9"
     inkscape:window-maximized="1"
     inkscape:current-layer="layer1" /><defs
     id="defs2" /><g
     inkscape:label="Layer 1"
     inkscape:groupmode="layer"
     id="layer1"
     transform="translate(-138.24822,-112.06704)"><g
       id="g2915"
       transform="matrix(0.61597678,0,0,0.61597678,26.689216,40.603005)"><path
         id="path2904"
         style="opacity:1;fill:#e2f854;fill-opacity:1;stroke-width:1;stroke-linecap:round"
         d="m 181.1091,116.01741 v 0.39377 6.25647 12.68501 l 16.96899,-9.28832 -11.13266,-6.59133 -5.15317,-3.05097 z m 2.3921,2.43603 0.44752,0.34519 3.37447,2.59985 7.29103,5.61774 -12.7863,5.09065 1.0976,-8.9576 0.54157,-4.41781 z" /><path
         id="path2906"
         style="opacity:1;fill:#e2f854;fill-opacity:1;stroke-width:0.575152;stroke-linecap:round"
         d="m 184.15439,119.83733 -0.0274,0.22479 -0.4377,3.57188 -0.8878,7.24142 10.33735,-4.11551 -5.89421,-4.54185 -2.72851,-2.10219 z m 1.64744,2.64015 0.17674,0.18293 1.33428,1.37873 2.882,2.97811 -6.02857,1.43403 1.07332,-3.91915 0.52916,-1.93269 z" /></g></g></svg>
